<?xml version="1.0" encoding="UTF-8" standalone="no"?>
<!-- Created with Inkscape (http://www.inkscape.org/) -->

<svg
   xmlns:dc="http://purl.org/dc/elements/1.1/"
   xmlns:cc="http://creativecommons.org/ns#"
   xmlns:rdf="http://www.w3.org/1999/02/22-rdf-syntax-ns#"
   xmlns:svg="http://www.w3.org/2000/svg"
   xmlns="http://www.w3.org/2000/svg"
   xmlns:sodipodi="http://sodipodi.sourceforge.net/DTD/sodipodi-0.dtd"
   xmlns:inkscape="http://www.inkscape.org/namespaces/inkscape"
   version="1.1"
   id="svg2"
   xml:space="preserve"
   width="137.12195"
   height="689.81903"
   viewBox="0 0 137.12195 689.81906"
   sodipodi:docname="workflow-closeup.svg"
   inkscape:version="0.92.3 (2405546, 2018-03-11)"
   inkscape:export-filename="/homes/drubert/vol/ancestral-reconstruction/data/images/workflow-closeup.png"
   inkscape:export-xdpi="191.59"
   inkscape:export-ydpi="191.59"><metadata
     id="metadata8"><rdf:RDF><cc:Work
         rdf:about=""><dc:format>image/svg+xml</dc:format><dc:type
           rdf:resource="http://purl.org/dc/dcmitype/StillImage" /><dc:title></dc:title></cc:Work></rdf:RDF></metadata><defs
     id="defs6"><clipPath
       clipPathUnits="userSpaceOnUse"
       id="clipPath18"><path
         d="M 120.83333,120.83333 H 2362.5 V 3390.7979 H 120.83333 Z"
         id="path16"
         inkscape:connector-curvature="0"
         style="clip-rule:evenodd" /></clipPath><clipPath
       clipPathUnits="userSpaceOnUse"
       id="clipPath30"><path
         d="M 160.84819,160.84819 H 573.50145 V 2306.6451 H 160.84819 Z"
         id="path28"
         inkscape:connector-curvature="0"
         style="clip-rule:evenodd" /></clipPath><clipPath
       clipPathUnits="userSpaceOnUse"
       id="clipPath42"><path
         d="m 279.37479,272.63971 h 11.26218 v 15.00558 h -11.26218 z"
         id="path40"
         inkscape:connector-curvature="0"
         style="clip-rule:evenodd" /></clipPath><clipPath
       clipPathUnits="userSpaceOnUse"
       id="clipPath54"><path
         d="M 160.84819,160.84819 H 573.50145 V 2306.6451 H 160.84819 Z"
         id="path52"
         inkscape:connector-curvature="0"
         style="clip-rule:evenodd" /></clipPath><clipPath
       clipPathUnits="userSpaceOnUse"
       id="clipPath66"><path
         d="m 279.37479,386.43198 h 11.26218 v 15.00558 h -11.26218 z"
         id="path64"
         inkscape:connector-curvature="0"
         style="clip-rule:evenodd" /></clipPath><clipPath
       clipPathUnits="userSpaceOnUse"
       id="clipPath78"><path
         d="M 160.84819,160.84819 H 573.50145 V 2306.6451 H 160.84819 Z"
         id="path76"
         inkscape:connector-curvature="0"
         style="clip-rule:evenodd" /></clipPath><clipPath
       clipPathUnits="userSpaceOnUse"
       id="clipPath90"><path
         d="m 350.07626,500.22424 h 11.26218 v 15.00555 h -11.26218 z"
         id="path88"
         inkscape:connector-curvature="0"
         style="clip-rule:evenodd" /></clipPath><clipPath
       clipPathUnits="userSpaceOnUse"
       id="clipPath102"><path
         d="M 160.84819,160.84819 H 573.50145 V 2306.6451 H 160.84819 Z"
         id="path100"
         inkscape:connector-curvature="0"
         style="clip-rule:evenodd" /></clipPath><clipPath
       clipPathUnits="userSpaceOnUse"
       id="clipPath114"><path
         d="m 350.07626,614.01648 h 11.26218 v 15.00555 h -11.26218 z"
         id="path112"
         inkscape:connector-curvature="0"
         style="clip-rule:evenodd" /></clipPath><clipPath
       clipPathUnits="userSpaceOnUse"
       id="clipPath126"><path
         d="M 160.84819,160.84819 H 573.50145 V 2306.6451 H 160.84819 Z"
         id="path124"
         inkscape:connector-curvature="0"
         style="clip-rule:evenodd" /></clipPath><clipPath
       clipPathUnits="userSpaceOnUse"
       id="clipPath138"><path
         d="m 247.327,727.90125 11.69534,9.41168 -7.06378,8.76532 -11.69536,-9.41175 z"
         id="path136"
         inkscape:connector-curvature="0"
         style="clip-rule:evenodd" /></clipPath><clipPath
       clipPathUnits="userSpaceOnUse"
       id="clipPath150"><path
         d="M 160.84819,160.84819 H 573.50145 V 2306.6451 H 160.84819 Z"
         id="path148"
         inkscape:connector-curvature="0"
         style="clip-rule:evenodd" /></clipPath><clipPath
       clipPathUnits="userSpaceOnUse"
       id="clipPath162"><path
         d="m 329.74857,736.6665 -11.69535,9.41169 -7.06381,-8.76526 11.69537,-9.41168 z"
         id="path160"
         inkscape:connector-curvature="0"
         style="clip-rule:evenodd" /></clipPath><clipPath
       clipPathUnits="userSpaceOnUse"
       id="clipPath174"><path
         d="M 160.84819,160.84819 H 573.50145 V 2306.6451 H 160.84819 Z"
         id="path172"
         inkscape:connector-curvature="0"
         style="clip-rule:evenodd" /></clipPath><clipPath
       clipPathUnits="userSpaceOnUse"
       id="clipPath186"><path
         d="m 279.37479,841.60107 h 11.26218 v 15.00555 h -11.26218 z"
         id="path184"
         inkscape:connector-curvature="0"
         style="clip-rule:evenodd" /></clipPath><clipPath
       clipPathUnits="userSpaceOnUse"
       id="clipPath198"><path
         d="M 160.84819,160.84819 H 573.50145 V 2306.6451 H 160.84819 Z"
         id="path196"
         inkscape:connector-curvature="0"
         style="clip-rule:evenodd" /></clipPath><clipPath
       clipPathUnits="userSpaceOnUse"
       id="clipPath210"><path
         d="m 279.37479,955.39331 h 11.26218 v 15.00555 h -11.26218 z"
         id="path208"
         inkscape:connector-curvature="0"
         style="clip-rule:evenodd" /></clipPath><clipPath
       clipPathUnits="userSpaceOnUse"
       id="clipPath222"><path
         d="M 160.84819,160.84819 H 573.50145 V 2306.6451 H 160.84819 Z"
         id="path220"
         inkscape:connector-curvature="0"
         style="clip-rule:evenodd" /></clipPath><clipPath
       clipPathUnits="userSpaceOnUse"
       id="clipPath234"><path
         d="m 279.37479,1069.1856 h 11.26218 v 15.0056 h -11.26218 z"
         id="path232"
         inkscape:connector-curvature="0"
         style="clip-rule:evenodd" /></clipPath><clipPath
       clipPathUnits="userSpaceOnUse"
       id="clipPath246"><path
         d="M 160.84819,160.84819 H 573.50145 V 2306.6451 H 160.84819 Z"
         id="path244"
         inkscape:connector-curvature="0"
         style="clip-rule:evenodd" /></clipPath><clipPath
       clipPathUnits="userSpaceOnUse"
       id="clipPath258"><path
         d="m 321.94586,1183.3973 12.18057,8.7757 -6.58636,9.1289 -12.1806,-8.7756 z"
         id="path256"
         inkscape:connector-curvature="0"
         style="clip-rule:evenodd" /></clipPath><clipPath
       clipPathUnits="userSpaceOnUse"
       id="clipPath270"><path
         d="M 160.84819,160.84819 H 573.50145 V 2306.6451 H 160.84819 Z"
         id="path268"
         inkscape:connector-curvature="0"
         style="clip-rule:evenodd" /></clipPath><clipPath
       clipPathUnits="userSpaceOnUse"
       id="clipPath282"><path
         d="m 440.93384,1195.7183 -13.92945,5.6047 -4.20657,-10.4396 13.92944,-5.6048 z"
         id="path280"
         inkscape:connector-curvature="0"
         style="clip-rule:evenodd" /></clipPath><clipPath
       clipPathUnits="userSpaceOnUse"
       id="clipPath294"><path
         d="M 160.84819,160.84819 H 573.50145 V 2306.6451 H 160.84819 Z"
         id="path292"
         inkscape:connector-curvature="0"
         style="clip-rule:evenodd" /></clipPath><clipPath
       clipPathUnits="userSpaceOnUse"
       id="clipPath306"><path
         d="m 358.34689,1296.7701 h 11.26218 v 15.0057 h -11.26218 z"
         id="path304"
         inkscape:connector-curvature="0"
         style="clip-rule:evenodd" /></clipPath><clipPath
       clipPathUnits="userSpaceOnUse"
       id="clipPath318"><path
         d="M 160.84819,160.84819 H 573.50145 V 2306.6451 H 160.84819 Z"
         id="path316"
         inkscape:connector-curvature="0"
         style="clip-rule:evenodd" /></clipPath><clipPath
       clipPathUnits="userSpaceOnUse"
       id="clipPath330"><path
         d="m 358.34689,1410.5624 h 11.26218 v 15.0056 h -11.26218 z"
         id="path328"
         inkscape:connector-curvature="0"
         style="clip-rule:evenodd" /></clipPath><clipPath
       clipPathUnits="userSpaceOnUse"
       id="clipPath342"><path
         d="M 160.84819,160.84819 H 573.50145 V 2306.6451 H 160.84819 Z"
         id="path340"
         inkscape:connector-curvature="0"
         style="clip-rule:evenodd" /></clipPath><clipPath
       clipPathUnits="userSpaceOnUse"
       id="clipPath354"><path
         d="m 358.34689,1524.3547 h 11.26218 v 15.0057 h -11.26218 z"
         id="path352"
         inkscape:connector-curvature="0"
         style="clip-rule:evenodd" /></clipPath><clipPath
       clipPathUnits="userSpaceOnUse"
       id="clipPath366"><path
         d="M 160.84819,160.84819 H 573.50145 V 2306.6451 H 160.84819 Z"
         id="path364"
         inkscape:connector-curvature="0"
         style="clip-rule:evenodd" /></clipPath><clipPath
       clipPathUnits="userSpaceOnUse"
       id="clipPath378"><path
         d="m 358.34689,1638.147 h 11.26218 v 15.0056 h -11.26218 z"
         id="path376"
         inkscape:connector-curvature="0"
         style="clip-rule:evenodd" /></clipPath><clipPath
       clipPathUnits="userSpaceOnUse"
       id="clipPath390"><path
         d="M 160.84819,160.84819 H 573.50145 V 2306.6451 H 160.84819 Z"
         id="path388"
         inkscape:connector-curvature="0"
         style="clip-rule:evenodd" /></clipPath><clipPath
       clipPathUnits="userSpaceOnUse"
       id="clipPath402"><path
         d="m 358.34689,1751.9392 h 11.26218 v 15.0056 h -11.26218 z"
         id="path400"
         inkscape:connector-curvature="0"
         style="clip-rule:evenodd" /></clipPath><clipPath
       clipPathUnits="userSpaceOnUse"
       id="clipPath414"><path
         d="M 160.84819,160.84819 H 573.50145 V 2306.6451 H 160.84819 Z"
         id="path412"
         inkscape:connector-curvature="0"
         style="clip-rule:evenodd" /></clipPath><clipPath
       clipPathUnits="userSpaceOnUse"
       id="clipPath426"><path
         d="m 439.45023,1891.9912 h 11.26218 v 15.0056 h -11.26218 z"
         id="path424"
         inkscape:connector-curvature="0"
         style="clip-rule:evenodd" /></clipPath><clipPath
       clipPathUnits="userSpaceOnUse"
       id="clipPath438"><path
         d="M 160.84819,160.84819 H 573.50145 V 2306.6451 H 160.84819 Z"
         id="path436"
         inkscape:connector-curvature="0"
         style="clip-rule:evenodd" /></clipPath><clipPath
       clipPathUnits="userSpaceOnUse"
       id="clipPath450"><path
         d="m 439.45023,2005.7834 h 11.26218 v 15.0056 h -11.26218 z"
         id="path448"
         inkscape:connector-curvature="0"
         style="clip-rule:evenodd" /></clipPath><clipPath
       clipPathUnits="userSpaceOnUse"
       id="clipPath462"><path
         d="M 160.84819,160.84819 H 573.50145 V 2306.6451 H 160.84819 Z"
         id="path460"
         inkscape:connector-curvature="0"
         style="clip-rule:evenodd" /></clipPath><clipPath
       clipPathUnits="userSpaceOnUse"
       id="clipPath474"><path
         d="m 320.84036,2120.0771 12.29007,8.6219 -6.47095,9.2109 -12.29006,-8.6218 z"
         id="path472"
         inkscape:connector-curvature="0"
         style="clip-rule:evenodd" /></clipPath><clipPath
       clipPathUnits="userSpaceOnUse"
       id="clipPath486"><path
         d="M 160.84819,160.84819 H 573.50145 V 2306.6451 H 160.84819 Z"
         id="path484"
         inkscape:connector-curvature="0"
         style="clip-rule:evenodd" /></clipPath><clipPath
       clipPathUnits="userSpaceOnUse"
       id="clipPath498"><path
         d="m 413.58661,2129.2881 -12.29007,8.6218 -6.47098,-9.2109 12.2901,-8.6219 z"
         id="path496"
         inkscape:connector-curvature="0"
         style="clip-rule:evenodd" /></clipPath><clipPath
       clipPathUnits="userSpaceOnUse"
       id="clipPath510"><path
         d="M 160.84819,160.84819 H 573.50145 V 2306.6451 H 160.84819 Z"
         id="path508"
         inkscape:connector-curvature="0"
         style="clip-rule:evenodd" /></clipPath><clipPath
       clipPathUnits="userSpaceOnUse"
       id="clipPath522"><path
         d="m 358.34689,2233.3679 h 11.26218 v 15.0056 h -11.26218 z"
         id="path520"
         inkscape:connector-curvature="0"
         style="clip-rule:evenodd" /></clipPath><clipPath
       clipPathUnits="userSpaceOnUse"
       id="clipPath534"><path
         d="M 160.84819,160.84819 H 573.50145 V 2306.6451 H 160.84819 Z"
         id="path532"
         inkscape:connector-curvature="0"
         style="clip-rule:evenodd" /></clipPath></defs><sodipodi:namedview
     pagecolor="#ffffff"
     bordercolor="#666666"
     borderopacity="1"
     objecttolerance="10"
     gridtolerance="10"
     guidetolerance="10"
     inkscape:pageopacity="0"
     inkscape:pageshadow="2"
     inkscape:window-width="1920"
     inkscape:window-height="1135"
     id="namedview4"
     showgrid="false"
     inkscape:zoom="0.2973154"
     inkscape:cx="-1505.5784"
     inkscape:cy="-147.97675"
     inkscape:window-x="0"
     inkscape:window-y="0"
     inkscape:window-maximized="1"
     inkscape:current-layer="g530"
     fit-margin-top="10"
     fit-margin-left="10"
     fit-margin-right="10"
     fit-margin-bottom="10" /><g
     id="g10"
     inkscape:groupmode="layer"
     inkscape:label="workflow-closeup"
     transform="matrix(0.31999998,0,0,0.31999998,-48.679209,-49.874538)"><g
       id="g24"><g
         id="g26"
         clip-path="url(#clipPath30)"><g
           id="g32"
           transform="matrix(1.2513531,0,0,1.2504644,145.83195,145.84262)"><path
             d="m 145.89423,61 -34.67548,25 v 25"
             style="fill:none;stroke:#333333;stroke-width:1;stroke-linecap:butt;stroke-linejoin:miter;stroke-miterlimit:10;stroke-dasharray:none;stroke-opacity:1"
             id="path34"
             inkscape:connector-curvature="0" /></g></g></g><g
       id="g36"><g
         id="g38"
         clip-path="url(#clipPath42)"><g
           id="g44"
           transform="matrix(0,1.1254181,-1.1262178,0,290.63696,274.51541)"><path
             d="M 0,0 10,5 0,10 Z"
             style="fill:#333333;fill-opacity:1;fill-rule:nonzero;stroke:none"
             id="path46"
             inkscape:connector-curvature="0" /></g></g></g><g
       id="g48"><g
         id="g50"
         clip-path="url(#clipPath54)"><g
           id="g56"
           transform="matrix(1.2513531,0,0,1.2504644,145.83195,145.84262)"><path
             d="m 111.21875,152 v 25 25"
             style="fill:none;stroke:#333333;stroke-width:1;stroke-linecap:butt;stroke-linejoin:miter;stroke-miterlimit:10;stroke-dasharray:none;stroke-opacity:1"
             id="path58"
             inkscape:connector-curvature="0" /></g></g></g><g
       id="g60"><g
         id="g62"
         clip-path="url(#clipPath66)"><g
           id="g68"
           transform="matrix(0,1.1254181,-1.1262178,0,290.63696,388.30768)"><path
             d="M 0,0 10,5 0,10 Z"
             style="fill:#333333;fill-opacity:1;fill-rule:nonzero;stroke:none"
             id="path70"
             inkscape:connector-curvature="0" /></g></g></g><g
       id="g72"><g
         id="g74"
         clip-path="url(#clipPath78)"><g
           id="g80"
           transform="matrix(1.2513531,0,0,1.2504644,145.83195,145.84262)"><path
             d="m 136.67479,243 31.04396,25 v 25"
             style="fill:none;stroke:#333333;stroke-width:1;stroke-linecap:butt;stroke-linejoin:miter;stroke-miterlimit:10;stroke-dasharray:none;stroke-opacity:1"
             id="path82"
             inkscape:connector-curvature="0" /></g></g></g><g
       id="g84"><g
         id="g86"
         clip-path="url(#clipPath90)"><g
           id="g92"
           transform="matrix(0,1.1254181,-1.1262178,0,361.33844,502.09995)"><path
             d="M 0,0 10,5 0,10 Z"
             style="fill:#333333;fill-opacity:1;fill-rule:nonzero;stroke:none"
             id="path94"
             inkscape:connector-curvature="0" /></g></g></g><g
       id="g96"><g
         id="g98"
         clip-path="url(#clipPath102)"><g
           id="g104"
           transform="matrix(1.2513531,0,0,1.2504644,145.83195,145.84262)"><path
             d="m 167.71875,334 v 25 25"
             style="fill:none;stroke:#333333;stroke-width:1;stroke-linecap:butt;stroke-linejoin:miter;stroke-miterlimit:10;stroke-dasharray:none;stroke-opacity:1"
             id="path106"
             inkscape:connector-curvature="0" /></g></g></g><g
       id="g108"><g
         id="g110"
         clip-path="url(#clipPath114)"><g
           id="g116"
           transform="matrix(0,1.1254181,-1.1262178,0,361.33844,615.89215)"><path
             d="M 0,0 10,5 0,10 Z"
             style="fill:#333333;fill-opacity:1;fill-rule:nonzero;stroke:none"
             id="path118"
             inkscape:connector-curvature="0" /></g></g></g><g
       id="g120"><g
         id="g122"
         clip-path="url(#clipPath126)"><g
           id="g128"
           transform="matrix(1.2513531,0,0,1.2504644,145.83195,145.84262)"><path
             d="M 85.762703,243 54.71875,268 v 45.5 45.5 45.5 45.5 l 31.043953,25"
             style="fill:none;stroke:#333333;stroke-width:1;stroke-linecap:butt;stroke-linejoin:miter;stroke-miterlimit:10;stroke-dasharray:none;stroke-opacity:1"
             id="path130"
             inkscape:connector-curvature="0" /></g></g></g><g
       id="g132"><g
         id="g134"
         clip-path="url(#clipPath138)"><g
           id="g140"
           transform="matrix(0.87715185,0.7058773,-0.706379,0.87652892,248.78891,729.0777)"><path
             d="M 0,0 10,5 0,10 Z"
             style="fill:#333333;fill-opacity:1;fill-rule:nonzero;stroke:none"
             id="path142"
             inkscape:connector-curvature="0" /></g></g></g><g
       id="g144"><g
         id="g146"
         clip-path="url(#clipPath150)"><g
           id="g152"
           transform="matrix(1.2513531,0,0,1.2504644,145.83195,145.84262)"><path
             d="m 167.71875,425 v 25 l -31.04396,25"
             style="fill:none;stroke:#333333;stroke-width:1;stroke-linecap:butt;stroke-linejoin:miter;stroke-miterlimit:10;stroke-dasharray:none;stroke-opacity:1"
             id="path154"
             inkscape:connector-curvature="0" /></g></g></g><g
       id="g156"><g
         id="g158"
         clip-path="url(#clipPath162)"><g
           id="g164"
           transform="matrix(-0.87715185,0.7058773,-0.706379,-0.87652892,328.28665,737.84296)"><path
             d="M 0,0 10,5 0,10 Z"
             style="fill:#333333;fill-opacity:1;fill-rule:nonzero;stroke:none"
             id="path166"
             inkscape:connector-curvature="0" /></g></g></g><g
       id="g168"><g
         id="g170"
         clip-path="url(#clipPath174)"><g
           id="g176"
           transform="matrix(1.2513531,0,0,1.2504644,145.83195,145.84262)"><path
             d="m 111.21875,516 v 25 25"
             style="fill:none;stroke:#333333;stroke-width:1;stroke-linecap:butt;stroke-linejoin:miter;stroke-miterlimit:10;stroke-dasharray:none;stroke-opacity:1"
             id="path178"
             inkscape:connector-curvature="0" /></g></g></g><g
       id="g180"><g
         id="g182"
         clip-path="url(#clipPath186)"><g
           id="g188"
           transform="matrix(0,1.1254181,-1.1262178,0,290.63696,843.47675)"><path
             d="M 0,0 10,5 0,10 Z"
             style="fill:#333333;fill-opacity:1;fill-rule:nonzero;stroke:none"
             id="path190"
             inkscape:connector-curvature="0" /></g></g></g><g
       id="g192"><g
         id="g194"
         clip-path="url(#clipPath198)"><g
           id="g200"
           transform="matrix(1.2513531,0,0,1.2504644,145.83195,145.84262)"><path
             d="m 111.21875,607 v 25 25"
             style="fill:none;stroke:#333333;stroke-width:1;stroke-linecap:butt;stroke-linejoin:miter;stroke-miterlimit:10;stroke-dasharray:none;stroke-opacity:1"
             id="path202"
             inkscape:connector-curvature="0" /></g></g></g><g
       id="g204"><g
         id="g206"
         clip-path="url(#clipPath210)"><g
           id="g212"
           transform="matrix(0,1.1254181,-1.1262178,0,290.63696,957.26898)"><path
             d="M 0,0 10,5 0,10 Z"
             style="fill:#333333;fill-opacity:1;fill-rule:nonzero;stroke:none"
             id="path214"
             inkscape:connector-curvature="0" /></g></g></g><g
       id="g216"><g
         id="g218"
         clip-path="url(#clipPath222)"><g
           id="g224"
           transform="matrix(1.2513531,0,0,1.2504644,145.83195,145.84262)"><path
             d="m 111.21875,698 v 25 25"
             style="fill:none;stroke:#333333;stroke-width:1;stroke-linecap:butt;stroke-linejoin:miter;stroke-miterlimit:10;stroke-dasharray:none;stroke-opacity:1"
             id="path226"
             inkscape:connector-curvature="0" /></g></g></g><g
       id="g228"><g
         id="g230"
         clip-path="url(#clipPath234)"><g
           id="g236"
           transform="matrix(0,1.1254181,-1.1262178,0,290.63696,1071.0613)"><path
             d="M 0,0 10,5 0,10 Z"
             style="fill:#333333;fill-opacity:1;fill-rule:nonzero;stroke:none"
             id="path238"
             inkscape:connector-curvature="0" /></g></g></g><g
       id="g240"><g
         id="g242"
         clip-path="url(#clipPath246)"><g
           id="g248"
           transform="matrix(1.2513531,0,0,1.2504644,145.83195,145.84262)"><path
             d="m 111.21875,789 v 25 l 34.67548,25"
             style="fill:none;stroke:#333333;stroke-width:1;stroke-linecap:butt;stroke-linejoin:miter;stroke-miterlimit:10;stroke-dasharray:none;stroke-opacity:1"
             id="path250"
             inkscape:connector-curvature="0" /></g></g></g><g
       id="g252"><g
         id="g254"
         clip-path="url(#clipPath258)"><g
           id="g260"
           transform="matrix(0.91354388,0.65817046,-0.65863818,0.91289508,323.46844,1184.4943)"><path
             d="M 0,0 10,5 0,10 Z"
             style="fill:#333333;fill-opacity:1;fill-rule:nonzero;stroke:none"
             id="path262"
             inkscape:connector-curvature="0" /></g></g></g><g
       id="g264"><g
         id="g266"
         clip-path="url(#clipPath270)"><g
           id="g272"
           transform="matrix(1.2513531,0,0,1.2504644,145.83195,145.84262)"><path
             d="M 218.07813,58.11615 287.32813,86 v 45.5 45.5 45.5 45.5 45.5 45.5 45.5 45.5 45.5 45.5 45.5 45.5 45.5 45.5 45.5 45.5 l -62.08791,25"
             style="fill:none;stroke:#333333;stroke-width:1;stroke-linecap:butt;stroke-linejoin:miter;stroke-miterlimit:10;stroke-dasharray:none;stroke-opacity:1"
             id="path274"
             inkscape:connector-curvature="0" /></g></g></g><g
       id="g276"><g
         id="g278"
         clip-path="url(#clipPath282)"><g
           id="g284"
           transform="matrix(-1.0447078,0.42035821,-0.42065695,-1.0439658,439.19266,1196.4188)"><path
             d="M 0,0 10,5 0,10 Z"
             style="fill:#333333;fill-opacity:1;fill-rule:nonzero;stroke:none"
             id="path286"
             inkscape:connector-curvature="0" /></g></g></g><g
       id="g288"><g
         id="g290"
         clip-path="url(#clipPath294)"><g
           id="g296"
           transform="matrix(1.2513531,0,0,1.2504644,145.83195,145.84262)"><path
             d="m 174.32813,880 v 25 25"
             style="fill:none;stroke:#333333;stroke-width:1;stroke-linecap:butt;stroke-linejoin:miter;stroke-miterlimit:10;stroke-dasharray:none;stroke-opacity:1"
             id="path298"
             inkscape:connector-curvature="0" /></g></g></g><g
       id="g300"><g
         id="g302"
         clip-path="url(#clipPath306)"><g
           id="g308"
           transform="matrix(0,1.1254181,-1.1262178,0,369.60907,1298.6459)"><path
             d="M 0,0 10,5 0,10 Z"
             style="fill:#333333;fill-opacity:1;fill-rule:nonzero;stroke:none"
             id="path310"
             inkscape:connector-curvature="0" /></g></g></g><g
       id="g312"><g
         id="g314"
         clip-path="url(#clipPath318)"><g
           id="g320"
           transform="matrix(1.2513531,0,0,1.2504644,145.83195,145.84262)"><path
             d="m 174.32813,971 v 25 25"
             style="fill:none;stroke:#333333;stroke-width:1;stroke-linecap:butt;stroke-linejoin:miter;stroke-miterlimit:10;stroke-dasharray:none;stroke-opacity:1"
             id="path322"
             inkscape:connector-curvature="0" /></g></g></g><g
       id="g324"><g
         id="g326"
         clip-path="url(#clipPath330)"><g
           id="g332"
           transform="matrix(0,1.1254181,-1.1262178,0,369.60907,1412.4381)"><path
             d="M 0,0 10,5 0,10 Z"
             style="fill:#333333;fill-opacity:1;fill-rule:nonzero;stroke:none"
             id="path334"
             inkscape:connector-curvature="0" /></g></g></g><g
       id="g336"><g
         id="g338"
         clip-path="url(#clipPath342)"><g
           id="g344"
           transform="matrix(1.2513531,0,0,1.2504644,145.83195,145.84262)"><path
             d="m 174.32813,1062 v 25 25"
             style="fill:none;stroke:#333333;stroke-width:1;stroke-linecap:butt;stroke-linejoin:miter;stroke-miterlimit:10;stroke-dasharray:none;stroke-opacity:1"
             id="path346"
             inkscape:connector-curvature="0" /></g></g></g><g
       id="g348"><g
         id="g350"
         clip-path="url(#clipPath354)"><g
           id="g356"
           transform="matrix(0,1.1254181,-1.1262178,0,369.60907,1526.2305)"><path
             d="M 0,0 10,5 0,10 Z"
             style="fill:#333333;fill-opacity:1;fill-rule:nonzero;stroke:none"
             id="path358"
             inkscape:connector-curvature="0" /></g></g></g><g
       id="g360"><g
         id="g362"
         clip-path="url(#clipPath366)"><g
           id="g368"
           transform="matrix(1.2513531,0,0,1.2504644,145.83195,145.84262)"><path
             d="m 174.32813,1153 v 25 25"
             style="fill:none;stroke:#333333;stroke-width:1;stroke-linecap:butt;stroke-linejoin:miter;stroke-miterlimit:10;stroke-dasharray:none;stroke-opacity:1"
             id="path370"
             inkscape:connector-curvature="0" /></g></g></g><g
       id="g372"><g
         id="g374"
         clip-path="url(#clipPath378)"><g
           id="g380"
           transform="matrix(0,1.1254181,-1.1262178,0,369.60907,1640.0227)"><path
             d="M 0,0 10,5 0,10 Z"
             style="fill:#333333;fill-opacity:1;fill-rule:nonzero;stroke:none"
             id="path382"
             inkscape:connector-curvature="0" /></g></g></g><g
       id="g384"><g
         id="g386"
         clip-path="url(#clipPath390)"><g
           id="g392"
           transform="matrix(1.2513531,0,0,1.2504644,145.83195,145.84262)"><path
             d="m 174.32813,1244 v 25 25"
             style="fill:none;stroke:#333333;stroke-width:1;stroke-linecap:butt;stroke-linejoin:miter;stroke-miterlimit:10;stroke-dasharray:none;stroke-opacity:1"
             id="path394"
             inkscape:connector-curvature="0" /></g></g></g><g
       id="g396"><g
         id="g398"
         clip-path="url(#clipPath402)"><g
           id="g404"
           transform="matrix(0,1.1254181,-1.1262178,0,369.60907,1753.8149)"><path
             d="M 0,0 10,5 0,10 Z"
             style="fill:#333333;fill-opacity:1;fill-rule:nonzero;stroke:none"
             id="path406"
             inkscape:connector-curvature="0" /></g></g></g><g
       id="g408"><g
         id="g410"
         clip-path="url(#clipPath414)"><g
           id="g416"
           transform="matrix(1.2513531,0,0,1.2504644,145.83195,145.84262)"><path
             d="m 210.20647,1356 28.93416,25 v 25"
             style="fill:none;stroke:#333333;stroke-width:1;stroke-linecap:butt;stroke-linejoin:miter;stroke-miterlimit:10;stroke-dasharray:none;stroke-opacity:1"
             id="path418"
             inkscape:connector-curvature="0" /></g></g></g><g
       id="g420"><g
         id="g422"
         clip-path="url(#clipPath426)"><g
           id="g428"
           transform="matrix(0,1.1254181,-1.1262178,0,450.7124,1893.8669)"><path
             d="M 0,0 10,5 0,10 Z"
             style="fill:#333333;fill-opacity:1;fill-rule:nonzero;stroke:none"
             id="path430"
             inkscape:connector-curvature="0" /></g></g></g><g
       id="g432"><g
         id="g434"
         clip-path="url(#clipPath438)"><g
           id="g440"
           transform="matrix(1.2513531,0,0,1.2504644,145.83195,145.84262)"><path
             d="m 239.14063,1447 v 25 25"
             style="fill:none;stroke:#333333;stroke-width:1;stroke-linecap:butt;stroke-linejoin:miter;stroke-miterlimit:10;stroke-dasharray:none;stroke-opacity:1"
             id="path442"
             inkscape:connector-curvature="0" /></g></g></g><g
       id="g444"><g
         id="g446"
         clip-path="url(#clipPath450)"><g
           id="g452"
           transform="matrix(0,1.1254181,-1.1262178,0,450.7124,2007.6592)"><path
             d="M 0,0 10,5 0,10 Z"
             style="fill:#333333;fill-opacity:1;fill-rule:nonzero;stroke:none"
             id="path454"
             inkscape:connector-curvature="0" /></g></g></g><g
       id="g456"><g
         id="g458"
         clip-path="url(#clipPath462)"><g
           id="g464"
           transform="matrix(1.2513531,0,0,1.2504644,145.83195,145.84262)"><path
             d="m 138.44978,1356 -28.93415,25 v 45.5 45.5 45.5 45.5 l 35.61126,25"
             style="fill:none;stroke:#333333;stroke-width:1;stroke-linecap:butt;stroke-linejoin:miter;stroke-miterlimit:10;stroke-dasharray:none;stroke-opacity:1"
             id="path466"
             inkscape:connector-curvature="0" /></g></g></g><g
       id="g468"><g
         id="g470"
         clip-path="url(#clipPath474)"><g
           id="g476"
           transform="matrix(0.92175585,0.64663607,-0.64709562,0.92110121,322.37662,2121.1548)"><path
             d="M 0,0 10,5 0,10 Z"
             style="fill:#333333;fill-opacity:1;fill-rule:nonzero;stroke:none"
             id="path478"
             inkscape:connector-curvature="0" /></g></g></g><g
       id="g480"><g
         id="g482"
         clip-path="url(#clipPath486)"><g
           id="g488"
           transform="matrix(1.2513531,0,0,1.2504644,145.83195,145.84262)"><path
             d="m 239.14063,1538 v 25 l -35.61127,25"
             style="fill:none;stroke:#333333;stroke-width:1;stroke-linecap:butt;stroke-linejoin:miter;stroke-miterlimit:10;stroke-dasharray:none;stroke-opacity:1"
             id="path490"
             inkscape:connector-curvature="0" /></g></g></g><g
       id="g492"><g
         id="g494"
         clip-path="url(#clipPath498)"><g
           id="g500"
           transform="matrix(-0.92175597,0.64663607,-0.64709562,-0.92110127,412.05035,2130.3657)"><path
             d="M 0,0 10,5 0,10 Z"
             style="fill:#333333;fill-opacity:1;fill-rule:nonzero;stroke:none"
             id="path502"
             inkscape:connector-curvature="0" /></g></g></g><g
       id="g504"><g
         id="g506"
         clip-path="url(#clipPath510)"><g
           id="g512"
           transform="matrix(1.2513531,0,0,1.2504644,145.83195,145.84262)"><path
             d="m 174.32813,1629 v 25 25"
             style="fill:none;stroke:#333333;stroke-width:1;stroke-linecap:butt;stroke-linejoin:miter;stroke-miterlimit:10;stroke-dasharray:none;stroke-opacity:1"
             id="path514"
             inkscape:connector-curvature="0" /></g></g></g><g
       id="g516"><g
         id="g518"
         clip-path="url(#clipPath522)"><g
           id="g524"
           transform="matrix(0,1.1254181,-1.1262178,0,369.60907,2235.2437)"><path
             d="M 0,0 10,5 0,10 Z"
             style="fill:#333333;fill-opacity:1;fill-rule:nonzero;stroke:none"
             id="path526"
             inkscape:connector-curvature="0" /></g></g></g><g
       id="g528"><g
         id="g530"
         clip-path="url(#clipPath534)"><g
           id="g536"
           transform="matrix(1.2513531,0,0,1.2504644,321.74484,183.35655)"><text
   transform="translate(0,15)"
   style="font-variant:normal;font-weight:normal;font-size:14px;font-family:FontAwesome;-inkscape-font-specification:FontAwesome5FreeRegular;writing-mode:lr-tb;fill:#333333;fill-opacity:1;fill-rule:nonzero;stroke:none"
   id="text540"><tspan
     x="0"
     y="0"
     id="tspan538"></tspan></text>


<text
   transform="translate(16.467773,15)"
   style="font-variant:normal;font-weight:normal;font-size:14px;font-family:'Trebuchet MS';-inkscape-font-specification:TrebuchetMS;writing-mode:lr-tb;fill:#333333;fill-opacity:1;fill-rule:nonzero;stroke:none"
   id="text544"><tspan
     x="0 7.0273438 14.827148 21.888672 26.106445 31.28125 35.273438 39.402344 47.038086"
     y="0"
     sodipodi:role="line"
     id="tspan542">gbk files</tspan></text>


</g><g
           id="g546"
           transform="matrix(1.2513531,0,0,1.2504644,285.00589,310.27869)"><path
             d="m -65.703125,-20.5 h 131.40625 c 0.663033,2e-6 1.300835,0.126869 1.913406,0.380604 0.612572,0.253736 1.153275,0.615022 1.622124,1.083862 0.468834,0.468842 0.830124,1.009546 1.083855,1.622116 0.253738,0.612572 0.380607,1.250378 0.380615,1.913418 v 31 c -8e-6,0.66304 -0.126877,1.300846 -0.380615,1.913418 -0.253731,0.61257 -0.615021,1.153274 -1.083855,1.622116 -0.468849,0.46884 -1.009552,0.830126 -1.622124,1.083862 C 67.00396,20.373131 66.366158,20.499998 65.703125,20.5 h -131.40625 c -0.663033,-2e-6 -1.300835,-0.126869 -1.913406,-0.380604 -0.612572,-0.253736 -1.153275,-0.615022 -1.622124,-1.083862 -0.468834,-0.468842 -0.830124,-1.009546 -1.083855,-1.622116 C -70.576248,16.800846 -70.703117,16.16304 -70.703125,15.5 v -31 c 8e-6,-0.66304 0.126877,-1.300846 0.380615,-1.913418 0.253731,-0.61257 0.615021,-1.153274 1.083855,-1.622116 0.468849,-0.46884 1.009552,-0.830126 1.622124,-1.083862 0.612571,-0.253735 1.250373,-0.380602 1.913406,-0.380604 z"
             style="fill:#ececff;fill-opacity:1;fill-rule:nonzero;stroke:none"
             id="path548"
             inkscape:connector-curvature="0" /><path
             d="m -65.703125,-20.5 h 131.40625 c 0.663033,2e-6 1.300835,0.126869 1.913406,0.380604 0.612572,0.253736 1.153275,0.615022 1.622124,1.083862 0.468834,0.468842 0.830124,1.009546 1.083855,1.622116 0.253738,0.612572 0.380607,1.250378 0.380615,1.913418 v 31 c -8e-6,0.66304 -0.126877,1.300846 -0.380615,1.913418 -0.253731,0.61257 -0.615021,1.153274 -1.083855,1.622116 -0.468849,0.46884 -1.009552,0.830126 -1.622124,1.083862 C 67.00396,20.373131 66.366158,20.499998 65.703125,20.5 h -131.40625 c -0.663033,-2e-6 -1.300835,-0.126869 -1.913406,-0.380604 -0.612572,-0.253736 -1.153275,-0.615022 -1.622124,-1.083862 -0.468834,-0.468842 -0.830124,-1.009546 -1.083855,-1.622116 C -70.576248,16.800846 -70.703117,16.16304 -70.703125,15.5 v -31 c 8e-6,-0.66304 0.126877,-1.300846 0.380615,-1.913418 0.253731,-0.61257 0.615021,-1.153274 1.083855,-1.622116 0.468849,-0.46884 1.009552,-0.830126 1.622124,-1.083862 0.612571,-0.253735 1.250373,-0.380602 1.913406,-0.380604 z"
             style="fill:none;stroke:#9370db;stroke-width:1;stroke-linecap:butt;stroke-linejoin:miter;stroke-miterlimit:10;stroke-dasharray:none;stroke-opacity:1"
             id="path550"
             inkscape:connector-curvature="0" /></g><g
           id="g552"
           transform="matrix(1.2513531,0,0,1.2504644,209.04485,297.1488)"><text
   transform="translate(0,15)"
   style="font-variant:normal;font-weight:normal;font-size:14px;font-family:'Trebuchet MS';-inkscape-font-specification:TrebuchetMS;writing-mode:lr-tb;fill:#333333;fill-opacity:1;fill-rule:nonzero;stroke:none"
   id="text556"><tspan
     x="0 7.6357422 14.649414 20.200195 25.641602 32.99707 39.928711 45.479492 52.821289 60.176758 64.305664 68.43457 75.776367 83.576172 89.017578 96.530273 102.08105 109.7168 113.70898 121.3584"
     y="0"
     sodipodi:role="line"
     id="tspan554">extract_all_proteins</tspan></text>


</g><g
           id="g558"
           transform="matrix(1.2513531,0,0,1.2504644,237.90417,410.9411)"><text
   transform="translate(0,15)"
   style="font-variant:normal;font-weight:normal;font-size:14px;font-family:FontAwesome;-inkscape-font-specification:FontAwesome5FreeRegular;writing-mode:lr-tb;fill:#333333;fill-opacity:1;fill-rule:nonzero;stroke:none"
   id="text562"><tspan
     x="0"
     y="0"
     id="tspan560"></tspan></text>


<text
   transform="translate(16.467773,15)"
   style="font-variant:normal;font-weight:normal;font-size:14px;font-family:'Trebuchet MS';-inkscape-font-specification:TrebuchetMS;writing-mode:lr-tb;fill:#333333;fill-opacity:1;fill-rule:nonzero;stroke:none"
   id="text566"><tspan
     x="0 5.1748047 12.530273 18.197266 23.748047 31.103516 35.321289 40.496094 44.488281 48.617188 56.25293"
     y="0"
     sodipodi:role="line"
     id="tspan564">fasta files</tspan></text>


</g><g
           id="g568"
           transform="matrix(1.2513531,0,0,1.2504644,355.70734,537.86322)"><path
             d="M -54.820313,-20.5 H 54.820313 c 0.663036,2e-6 1.300838,0.126869 1.913406,0.380604 0.612575,0.253736 1.153282,0.615022 1.622124,1.083862 0.468837,0.468842 0.830127,1.009546 1.083862,1.622116 0.253734,0.612572 0.380604,1.250378 0.380608,1.913418 v 31 c -4e-6,0.66304 -0.126874,1.300846 -0.380608,1.913418 -0.253735,0.61257 -0.615025,1.153274 -1.083862,1.622116 -0.468842,0.46884 -1.009549,0.830126 -1.62212,1.083862 -0.612572,0.253735 -1.250374,0.380602 -1.91341,0.380604 H -54.820313 c -0.663036,-2e-6 -1.300838,-0.126869 -1.913406,-0.380604 -0.612575,-0.253736 -1.153282,-0.615022 -1.622124,-1.083862 -0.468837,-0.468842 -0.830127,-1.009546 -1.083862,-1.622116 C -59.693439,16.800846 -59.820309,16.16304 -59.820313,15.5 v -31 c 4e-6,-0.66304 0.126874,-1.300846 0.380608,-1.913418 0.253735,-0.61257 0.615025,-1.153274 1.083862,-1.622116 0.468842,-0.46884 1.009549,-0.830126 1.62212,-1.083862 0.612572,-0.253735 1.250374,-0.380602 1.91341,-0.380604 z"
             style="fill:#ececff;fill-opacity:1;fill-rule:nonzero;stroke:none"
             id="path570"
             inkscape:connector-curvature="0" /><path
             d="M -54.820313,-20.5 H 54.820313 c 0.663036,2e-6 1.300838,0.126869 1.913406,0.380604 0.612575,0.253736 1.153282,0.615022 1.622124,1.083862 0.468837,0.468842 0.830127,1.009546 1.083862,1.622116 0.253734,0.612572 0.380604,1.250378 0.380608,1.913418 v 31 c -4e-6,0.66304 -0.126874,1.300846 -0.380608,1.913418 -0.253735,0.61257 -0.615025,1.153274 -1.083862,1.622116 -0.468842,0.46884 -1.009549,0.830126 -1.62212,1.083862 -0.612572,0.253735 -1.250374,0.380602 -1.91341,0.380604 H -54.820313 c -0.663036,-2e-6 -1.300838,-0.126869 -1.913406,-0.380604 -0.612575,-0.253736 -1.153282,-0.615022 -1.622124,-1.083862 -0.468837,-0.468842 -0.830127,-1.009546 -1.083862,-1.622116 C -59.693439,16.800846 -59.820309,16.16304 -59.820313,15.5 v -31 c 4e-6,-0.66304 0.126874,-1.300846 0.380608,-1.913418 0.253735,-0.61257 0.615025,-1.153274 1.083862,-1.622116 0.468842,-0.46884 1.009549,-0.830126 1.62212,-1.083862 0.612572,-0.253735 1.250374,-0.380602 1.91341,-0.380604 z"
             style="fill:none;stroke:#9370db;stroke-width:1;stroke-linecap:butt;stroke-linejoin:miter;stroke-miterlimit:10;stroke-dasharray:none;stroke-opacity:1"
             id="path572"
             inkscape:connector-curvature="0" /></g><g
           id="g574"
           transform="matrix(1.2513531,0,0,1.2504644,293.36453,524.73334)"><text
   transform="translate(0,15)"
   style="font-variant:normal;font-weight:normal;font-size:14px;font-family:'Trebuchet MS';-inkscape-font-specification:TrebuchetMS;writing-mode:lr-tb;fill:#333333;fill-opacity:1;fill-rule:nonzero;stroke:none"
   id="text578"><tspan
     x="0 6.9316406 12.373047 20.008789 27.364258 32.915039 40.550781 47.892578 55.692383 59.821289 67.176758 72.84375 78.394531 85.736328 93.536133"
     y="0"
     sodipodi:role="line"
     id="tspan576">create_blast_db</tspan></text>


</g><g
           id="g580"
           transform="matrix(1.2513531,0,0,1.2504644,270.61533,638.52563)"><text
   transform="translate(0,15)"
   style="font-variant:normal;font-weight:normal;font-size:14px;font-family:FontAwesome;-inkscape-font-specification:FontAwesome5FreeRegular;writing-mode:lr-tb;fill:#333333;fill-opacity:1;fill-rule:nonzero;stroke:none"
   id="text584"><tspan
     x="0"
     y="0"
     id="tspan582"></tspan></text>


<text
   transform="translate(16.467773,15)"
   style="font-variant:normal;font-weight:normal;font-size:14px;font-family:'Trebuchet MS';-inkscape-font-specification:TrebuchetMS;writing-mode:lr-tb;fill:#333333;fill-opacity:1;fill-rule:nonzero;stroke:none"
   id="text588"><tspan
     x="0 7.7998047 11.928711 19.28418 24.951172 30.501953 34.719727 42.519531 49.875 55.425781 62.78125 70.581055 77.936523 83.603516 91.239258 95.457031 100.63184 104.62402 108.75293 116.38867"
     y="0"
     sodipodi:role="line"
     id="tspan586">blast database files</tspan></text>


</g><g
           id="g590"
           transform="matrix(1.2513531,0,0,1.2504644,285.00589,765.44775)"><path
             d="m -33.796875,-20.5 h 67.59375 c 0.663036,2e-6 1.300842,0.126869 1.913414,0.380604 0.612568,0.253736 1.153275,0.615022 1.622116,1.083862 0.468838,0.468842 0.830128,1.009546 1.083862,1.622116 0.253735,0.612572 0.380604,1.250378 0.380608,1.913418 v 31 c -4e-6,0.66304 -0.126873,1.300846 -0.380608,1.913418 -0.253734,0.61257 -0.615024,1.153274 -1.083862,1.622116 -0.468841,0.46884 -1.009548,0.830126 -1.622116,1.083862 -0.612572,0.253735 -1.250378,0.380602 -1.913414,0.380604 h -67.59375 c -0.663036,-2e-6 -1.300842,-0.126869 -1.913414,-0.380604 -0.612568,-0.253736 -1.153275,-0.615022 -1.622116,-1.083862 -0.468838,-0.468842 -0.830128,-1.009546 -1.083862,-1.622116 C -38.670002,16.800846 -38.796871,16.16304 -38.796875,15.5 v -31 c 4e-6,-0.66304 0.126873,-1.300846 0.380608,-1.913418 0.253734,-0.61257 0.615024,-1.153274 1.083862,-1.622116 0.468841,-0.46884 1.009548,-0.830126 1.622116,-1.083862 0.612572,-0.253735 1.250378,-0.380602 1.913414,-0.380604 z"
             style="fill:#ececff;fill-opacity:1;fill-rule:nonzero;stroke:none"
             id="path592"
             inkscape:connector-curvature="0" /><path
             d="m -33.796875,-20.5 h 67.59375 c 0.663036,2e-6 1.300842,0.126869 1.913414,0.380604 0.612568,0.253736 1.153275,0.615022 1.622116,1.083862 0.468838,0.468842 0.830128,1.009546 1.083862,1.622116 0.253735,0.612572 0.380604,1.250378 0.380608,1.913418 v 31 c -4e-6,0.66304 -0.126873,1.300846 -0.380608,1.913418 -0.253734,0.61257 -0.615024,1.153274 -1.083862,1.622116 -0.468841,0.46884 -1.009548,0.830126 -1.622116,1.083862 -0.612572,0.253735 -1.250378,0.380602 -1.913414,0.380604 h -67.59375 c -0.663036,-2e-6 -1.300842,-0.126869 -1.913414,-0.380604 -0.612568,-0.253736 -1.153275,-0.615022 -1.622116,-1.083862 -0.468838,-0.468842 -0.830128,-1.009546 -1.083862,-1.622116 C -38.670002,16.800846 -38.796871,16.16304 -38.796875,15.5 v -31 c 4e-6,-0.66304 0.126873,-1.300846 0.380608,-1.913418 0.253734,-0.61257 0.615024,-1.153274 1.083862,-1.622116 0.468841,-0.46884 1.009548,-0.830126 1.622116,-1.083862 0.612572,-0.253735 1.250378,-0.380602 1.913414,-0.380604 z"
             style="fill:none;stroke:#9370db;stroke-width:1;stroke-linecap:butt;stroke-linejoin:miter;stroke-miterlimit:10;stroke-dasharray:none;stroke-opacity:1"
             id="path594"
             inkscape:connector-curvature="0" /></g><g
           id="g596"
           transform="matrix(1.2513531,0,0,1.2504644,248.97083,752.31787)"><text
   transform="translate(0,15)"
   style="font-variant:normal;font-weight:normal;font-size:14px;font-family:'Trebuchet MS';-inkscape-font-specification:TrebuchetMS;writing-mode:lr-tb;fill:#333333;fill-opacity:1;fill-rule:nonzero;stroke:none"
   id="text600"><tspan
     x="0 5.4414062 13.09082 20.740234 28.082031 35.881836 40.010742 47.366211 53.033203"
     y="0"
     sodipodi:role="line"
     id="tspan598">run_blast</tspan></text>


</g><g
           id="g602"
           transform="matrix(1.2513531,0,0,1.2504644,183.37254,866.11017)"><text
   transform="translate(0,15)"
   style="font-variant:normal;font-weight:normal;font-size:14px;font-family:FontAwesome;-inkscape-font-specification:FontAwesome5FreeRegular;writing-mode:lr-tb;fill:#333333;fill-opacity:1;fill-rule:nonzero;stroke:none"
   id="text606"><tspan
     x="0"
     y="0"
     id="tspan604"></tspan></text>


<text
   transform="translate(16.467773,15)"
   style="font-variant:normal;font-weight:normal;font-size:14px;font-family:'Trebuchet MS';-inkscape-font-specification:TrebuchetMS;writing-mode:lr-tb;fill:#333333;fill-opacity:1;fill-rule:nonzero;stroke:none"
   id="text610"><tspan
     x="0 7.7998047 11.928711 19.28418 24.951172 30.501953 34.719727 42.075195 46.204102 50.196289 57.223633 64.873047 76.494141 84.129883 91.779297 97.330078 102.99707 107.21484 112.65625 120.29199 125.95898 133.6084 137.7373 143.28809"
     y="0"
     sodipodi:role="line"
     id="tspan608">blast alignments results</tspan></text>


</g><g
           id="g612"
           transform="matrix(1.2513531,0,0,1.2504644,285.00589,993.03229)"><path
             d="m -57.140625,-20.5 h 114.28125 c 0.663036,2e-6 1.300838,0.126869 1.913406,0.380604 0.612572,0.253736 1.153279,0.615022 1.622124,1.083862 0.468838,0.468842 0.830128,1.009546 1.083862,1.622116 0.253735,0.612572 0.380604,1.250378 0.380608,1.913418 v 31 c -4e-6,0.66304 -0.126877,1.300846 -0.380615,1.913418 -0.253731,0.61257 -0.615017,1.153274 -1.083855,1.622116 -0.468845,0.46884 -1.009552,0.830126 -1.622124,1.083862 -0.612568,0.253735 -1.25037,0.380602 -1.913406,0.380604 h -114.28125 c -0.663036,-2e-6 -1.300838,-0.126869 -1.913406,-0.380604 -0.612572,-0.253736 -1.153279,-0.615022 -1.622124,-1.083862 -0.468838,-0.468842 -0.830128,-1.009546 -1.083862,-1.622116 C -62.013752,16.800846 -62.140621,16.16304 -62.140625,15.5 v -31 c 4e-6,-0.66304 0.126877,-1.300846 0.380615,-1.913418 0.253731,-0.61257 0.615017,-1.153274 1.083855,-1.622116 0.468845,-0.46884 1.009552,-0.830126 1.622124,-1.083862 0.612568,-0.253735 1.25037,-0.380602 1.913406,-0.380604 z"
             style="fill:#ececff;fill-opacity:1;fill-rule:nonzero;stroke:none"
             id="path614"
             inkscape:connector-curvature="0" /><path
             d="m -57.140625,-20.5 h 114.28125 c 0.663036,2e-6 1.300838,0.126869 1.913406,0.380604 0.612572,0.253736 1.153279,0.615022 1.622124,1.083862 0.468838,0.468842 0.830128,1.009546 1.083862,1.622116 0.253735,0.612572 0.380604,1.250378 0.380608,1.913418 v 31 c -4e-6,0.66304 -0.126877,1.300846 -0.380615,1.913418 -0.253731,0.61257 -0.615017,1.153274 -1.083855,1.622116 -0.468845,0.46884 -1.009552,0.830126 -1.622124,1.083862 -0.612568,0.253735 -1.25037,0.380602 -1.913406,0.380604 h -114.28125 c -0.663036,-2e-6 -1.300838,-0.126869 -1.913406,-0.380604 -0.612572,-0.253736 -1.153279,-0.615022 -1.622124,-1.083862 -0.468838,-0.468842 -0.830128,-1.009546 -1.083862,-1.622116 C -62.013752,16.800846 -62.140621,16.16304 -62.140625,15.5 v -31 c 4e-6,-0.66304 0.126877,-1.300846 0.380615,-1.913418 0.253731,-0.61257 0.615017,-1.153274 1.083855,-1.622116 0.468845,-0.46884 1.009552,-0.830126 1.622124,-1.083862 0.612568,-0.253735 1.25037,-0.380602 1.913406,-0.380604 z"
             style="fill:none;stroke:#9370db;stroke-width:1;stroke-linecap:butt;stroke-linejoin:miter;stroke-miterlimit:10;stroke-dasharray:none;stroke-opacity:1"
             id="path616"
             inkscape:connector-curvature="0" /></g><g
           id="g618"
           transform="matrix(1.2513531,0,0,1.2504644,219.75955,979.9024)"><text
   transform="translate(0,15)"
   style="font-variant:normal;font-weight:normal;font-size:14px;font-family:'Trebuchet MS';-inkscape-font-specification:TrebuchetMS;writing-mode:lr-tb;fill:#333333;fill-opacity:1;fill-rule:nonzero;stroke:none"
   id="text622"><tspan
     x="0 7.7998047 11.928711 19.28418 24.951172 30.501953 37.84375 43.394531 50.907227 58.249023 63.423828 70.779297 82.400391 86.392578 90.521484 94.513672 102.14941"
     y="0"
     sodipodi:role="line"
     id="tspan620">blast_to_families</tspan></text>


</g><g
           id="g624"
           transform="matrix(1.2513531,0,0,1.2504644,224.3837,1093.6947)"><text
   transform="translate(0,15)"
   style="font-variant:normal;font-weight:normal;font-size:14px;font-family:FontAwesome;-inkscape-font-specification:FontAwesome5FreeSolid;writing-mode:lr-tb;fill:#333333;fill-opacity:1;fill-rule:nonzero;stroke:none"
   id="text628"><tspan
     x="0"
     y="0"
     id="tspan626"></tspan></text>


<text
   transform="translate(14.717773,15)"
   style="font-variant:normal;font-weight:normal;font-size:14px;font-family:'Trebuchet MS';-inkscape-font-specification:TrebuchetMS;writing-mode:lr-tb;fill:#333333;fill-opacity:1;fill-rule:nonzero;stroke:none"
   id="text632"><tspan
     x="0 7.0273438 14.663086 22.3125 29.948242 34.166016 39.34082 46.696289 58.317383 62.30957 66.438477 70.430664 78.066406"
     y="0"
     sodipodi:role="line"
     id="tspan630">gene families</tspan></text>


</g><g
           id="g634"
           transform="matrix(1.2513531,0,0,1.2504644,363.97803,1220.6167)"><path
             d="m -89.828125,-20.5 h 179.65625 c 0.663033,2e-6 1.300835,0.126869 1.913406,0.380604 0.612572,0.253736 1.153275,0.615022 1.622124,1.083862 0.468834,0.468842 0.830124,1.009546 1.083862,1.622116 0.253731,0.612572 0.3806,1.250378 0.380608,1.913418 v 31 c -8e-6,0.66304 -0.126877,1.300846 -0.380608,1.913418 -0.253738,0.61257 -0.615028,1.153274 -1.083862,1.622116 -0.468849,0.46884 -1.009552,0.830126 -1.622116,1.083862 -0.612572,0.253735 -1.250381,0.380602 -1.913414,0.380604 h -179.65625 c -0.663033,-2e-6 -1.300835,-0.126869 -1.913406,-0.380604 -0.612572,-0.253736 -1.153275,-0.615022 -1.622124,-1.083862 -0.468834,-0.468842 -0.830124,-1.009546 -1.083862,-1.622116 -0.253731,-0.612572 -0.3806,-1.250378 -0.380608,-1.913418 v -31 c 8e-6,-0.66304 0.126877,-1.300846 0.380608,-1.913418 0.253738,-0.61257 0.615028,-1.153274 1.083862,-1.622116 0.468849,-0.46884 1.009552,-0.830126 1.622116,-1.083862 0.612572,-0.253735 1.250381,-0.380602 1.913414,-0.380604 z"
             style="fill:#ececff;fill-opacity:1;fill-rule:nonzero;stroke:none"
             id="path636"
             inkscape:connector-curvature="0" /><path
             d="m -89.828125,-20.5 h 179.65625 c 0.663033,2e-6 1.300835,0.126869 1.913406,0.380604 0.612572,0.253736 1.153275,0.615022 1.622124,1.083862 0.468834,0.468842 0.830124,1.009546 1.083862,1.622116 0.253731,0.612572 0.3806,1.250378 0.380608,1.913418 v 31 c -8e-6,0.66304 -0.126877,1.300846 -0.380608,1.913418 -0.253738,0.61257 -0.615028,1.153274 -1.083862,1.622116 -0.468849,0.46884 -1.009552,0.830126 -1.622116,1.083862 -0.612572,0.253735 -1.250381,0.380602 -1.913414,0.380604 h -179.65625 c -0.663033,-2e-6 -1.300835,-0.126869 -1.913406,-0.380604 -0.612572,-0.253736 -1.153275,-0.615022 -1.622124,-1.083862 -0.468834,-0.468842 -0.830124,-1.009546 -1.083862,-1.622116 -0.253731,-0.612572 -0.3806,-1.250378 -0.380608,-1.913418 v -31 c 8e-6,-0.66304 0.126877,-1.300846 0.380608,-1.913418 0.253738,-0.61257 0.615028,-1.153274 1.083862,-1.622116 0.468849,-0.46884 1.009552,-0.830126 1.622116,-1.083862 0.612572,-0.253735 1.250381,-0.380602 1.913414,-0.380604 z"
             style="fill:none;stroke:#9370db;stroke-width:1;stroke-linecap:butt;stroke-linejoin:miter;stroke-miterlimit:10;stroke-dasharray:none;stroke-opacity:1"
             id="path638"
             inkscape:connector-curvature="0" /></g><g
           id="g640"
           transform="matrix(1.2513531,0,0,1.2504644,257.82806,1207.4869)"><text
   transform="translate(0,15)"
   style="font-variant:normal;font-weight:normal;font-size:14px;font-family:'Trebuchet MS';-inkscape-font-specification:TrebuchetMS;writing-mode:lr-tb;fill:#333333;fill-opacity:1;fill-rule:nonzero;stroke:none"
   id="text644"><tspan
     x="0 7.7998047 15.3125 20.979492 26.530273 34.330078 39.771484 47.28418 54.21582 61.851562 67.518555 73.185547 80.527344 87.554688 95.19043 102.83984 110.47559 117.81738 122.99219 130.34766 141.96875 145.96094 150.08984 154.08203 161.71777"
     y="0"
     sodipodi:role="line"
     id="tspan642">postprocess_gene_families</tspan></text>


</g><g
           id="g646"
           transform="matrix(1.2513531,0,0,1.2504644,218.50819,1321.2792)"><text
   transform="translate(0,15)"
   style="font-variant:normal;font-weight:normal;font-size:14px;font-family:FontAwesome;-inkscape-font-specification:FontAwesome5FreeRegular;writing-mode:lr-tb;fill:#333333;fill-opacity:1;fill-rule:nonzero;stroke:none"
   id="text650"><tspan
     x="0"
     y="0"
     id="tspan648"></tspan></text>


<text
   transform="translate(16.467773,15)"
   style="font-variant:normal;font-weight:normal;font-size:14px;font-family:'Trebuchet MS';-inkscape-font-specification:TrebuchetMS;writing-mode:lr-tb;fill:#333333;fill-opacity:1;fill-rule:nonzero;stroke:none"
   id="text654"><tspan
     x="0 7.7998047 13.241211 20.753906 27.685547 35.321289 40.988281 46.655273 54.291016 62.09082 66.308594 73.335938 80.97168 88.621094 96.256836 101.92383 106.1416 113.49707 121.14648 128.94629 133.16406 138.33887 145.69434 157.31543 161.30762 165.43652 169.42871 177.06445 182.73145 186.94922 194.74902 202.10449 207.65527"
     y="0"
     sodipodi:role="line"
     id="tspan652">processed genes and families data</tspan></text>


</g><g
           id="g656"
           transform="matrix(1.2513531,0,0,1.2504644,363.97803,1448.2013)"><path
             d="m -29.132813,-20.5 h 58.265626 c 0.663038,2e-6 1.300842,0.126869 1.913412,0.380604 0.612571,0.253736 1.15328,0.615022 1.622121,1.083862 0.468842,0.468842 0.830128,1.009546 1.083863,1.622116 0.253734,0.612572 0.3806,1.250378 0.380604,1.913418 v 31 c -4e-6,0.66304 -0.12687,1.300846 -0.380604,1.913418 -0.253735,0.61257 -0.615021,1.153274 -1.083863,1.622116 -0.468841,0.46884 -1.00955,0.830126 -1.622121,1.083862 -0.61257,0.253735 -1.250374,0.380602 -1.913412,0.380604 h -58.265626 c -0.663038,-2e-6 -1.300842,-0.126869 -1.913412,-0.380604 -0.612571,-0.253736 -1.15328,-0.615022 -1.622121,-1.083862 -0.468842,-0.468842 -0.830128,-1.009546 -1.083863,-1.622116 -0.253734,-0.612572 -0.3806,-1.250378 -0.380604,-1.913418 v -31 c 4e-6,-0.66304 0.12687,-1.300846 0.380604,-1.913418 0.253735,-0.61257 0.615021,-1.153274 1.083863,-1.622116 0.468841,-0.46884 1.00955,-0.830126 1.622121,-1.083862 0.61257,-0.253735 1.250374,-0.380602 1.913412,-0.380604 z"
             style="fill:#ececff;fill-opacity:1;fill-rule:nonzero;stroke:none"
             id="path658"
             inkscape:connector-curvature="0" /><path
             d="m -29.132813,-20.5 h 58.265626 c 0.663038,2e-6 1.300842,0.126869 1.913412,0.380604 0.612571,0.253736 1.15328,0.615022 1.622121,1.083862 0.468842,0.468842 0.830128,1.009546 1.083863,1.622116 0.253734,0.612572 0.3806,1.250378 0.380604,1.913418 v 31 c -4e-6,0.66304 -0.12687,1.300846 -0.380604,1.913418 -0.253735,0.61257 -0.615021,1.153274 -1.083863,1.622116 -0.468841,0.46884 -1.00955,0.830126 -1.622121,1.083862 -0.61257,0.253735 -1.250374,0.380602 -1.913412,0.380604 h -58.265626 c -0.663038,-2e-6 -1.300842,-0.126869 -1.913412,-0.380604 -0.612571,-0.253736 -1.15328,-0.615022 -1.622121,-1.083862 -0.468842,-0.468842 -0.830128,-1.009546 -1.083863,-1.622116 -0.253734,-0.612572 -0.3806,-1.250378 -0.380604,-1.913418 v -31 c 4e-6,-0.66304 0.12687,-1.300846 0.380604,-1.913418 0.253735,-0.61257 0.615021,-1.153274 1.083863,-1.622116 0.468841,-0.46884 1.00955,-0.830126 1.622121,-1.083862 0.61257,-0.253735 1.250374,-0.380602 1.913412,-0.380604 z"
             style="fill:none;stroke:#9370db;stroke-width:1;stroke-linecap:butt;stroke-linejoin:miter;stroke-miterlimit:10;stroke-dasharray:none;stroke-opacity:1"
             id="path660"
             inkscape:connector-curvature="0" /></g><g
           id="g662"
           transform="matrix(1.2513531,0,0,1.2504644,333.77936,1435.0714)"><text
   transform="translate(0,15)"
   style="font-variant:normal;font-weight:normal;font-size:14px;font-family:'Trebuchet MS';-inkscape-font-specification:TrebuchetMS;writing-mode:lr-tb;fill:#333333;fill-opacity:1;fill-rule:nonzero;stroke:none"
   id="text666"><tspan
     x="0 6.9316406 11.060547 18.573242 24.240234 31.875977 39.525391"
     y="0"
     sodipodi:role="line"
     id="tspan664">closeup</tspan></text>


</g><g
           id="g668"
           transform="matrix(1.2513531,0,0,1.2504644,297.51941,1548.8637)"><text
   transform="translate(0,15)"
   style="font-variant:normal;font-weight:normal;font-size:14px;font-family:FontAwesome;-inkscape-font-specification:FontAwesome5FreeSolid;writing-mode:lr-tb;fill:#333333;fill-opacity:1;fill-rule:nonzero;stroke:none"
   id="text672"><tspan
     x="0"
     y="0"
     id="tspan670"></tspan></text>


<text
   transform="translate(14.717773,15)"
   style="font-variant:normal;font-weight:normal;font-size:14px;font-family:'Trebuchet MS';-inkscape-font-specification:TrebuchetMS;writing-mode:lr-tb;fill:#333333;fill-opacity:1;fill-rule:nonzero;stroke:none"
   id="text676"><tspan
     x="0 5.6669922 12.571289 20.220703 25.771484 33.407227 41.056641 47.960938 52.178711 59.978516 64.107422 71.620117 78.551758 85.613281"
     y="0"
     sodipodi:role="line"
     id="tspan674">synteny blocks</tspan></text>


</g><g
           id="g678"
           transform="matrix(1.2513531,0,0,1.2504644,363.97803,1675.7858)"><path
             d="m -61.828125,-20.5 h 123.65625 c 0.663036,2e-6 1.300842,0.126869 1.91341,0.380604 0.612576,0.253736 1.153279,0.615022 1.62212,1.083862 0.468842,0.468842 0.830132,1.009546 1.083862,1.622116 0.253731,0.612572 0.3806,1.250378 0.380608,1.913418 v 31 c -8e-6,0.66304 -0.126877,1.300846 -0.380615,1.913418 -0.253731,0.61257 -0.615013,1.153274 -1.083855,1.622116 -0.468841,0.46884 -1.009544,0.830126 -1.62212,1.083862 -0.612568,0.253735 -1.250374,0.380602 -1.91341,0.380604 h -123.65625 c -0.663036,-2e-6 -1.300842,-0.126869 -1.91341,-0.380604 -0.612576,-0.253736 -1.153279,-0.615022 -1.62212,-1.083862 -0.468842,-0.468842 -0.830132,-1.009546 -1.083862,-1.622116 -0.253731,-0.612572 -0.3806,-1.250378 -0.380608,-1.913418 v -31 c 8e-6,-0.66304 0.126877,-1.300846 0.380615,-1.913418 0.253731,-0.61257 0.615013,-1.153274 1.083855,-1.622116 0.468841,-0.46884 1.009544,-0.830126 1.62212,-1.083862 0.612568,-0.253735 1.250374,-0.380602 1.91341,-0.380604 z"
             style="fill:#ececff;fill-opacity:1;fill-rule:nonzero;stroke:none"
             id="path680"
             inkscape:connector-curvature="0" /><path
             d="m -61.828125,-20.5 h 123.65625 c 0.663036,2e-6 1.300842,0.126869 1.91341,0.380604 0.612576,0.253736 1.153279,0.615022 1.62212,1.083862 0.468842,0.468842 0.830132,1.009546 1.083862,1.622116 0.253731,0.612572 0.3806,1.250378 0.380608,1.913418 v 31 c -8e-6,0.66304 -0.126877,1.300846 -0.380615,1.913418 -0.253731,0.61257 -0.615013,1.153274 -1.083855,1.622116 -0.468841,0.46884 -1.009544,0.830126 -1.62212,1.083862 -0.612568,0.253735 -1.250374,0.380602 -1.91341,0.380604 h -123.65625 c -0.663036,-2e-6 -1.300842,-0.126869 -1.91341,-0.380604 -0.612576,-0.253736 -1.153279,-0.615022 -1.62212,-1.083862 -0.468842,-0.468842 -0.830132,-1.009546 -1.083862,-1.622116 -0.253731,-0.612572 -0.3806,-1.250378 -0.380608,-1.913418 v -31 c 8e-6,-0.66304 0.126877,-1.300846 0.380615,-1.913418 0.253731,-0.61257 0.615013,-1.153274 1.083855,-1.622116 0.468841,-0.46884 1.009544,-0.830126 1.62212,-1.083862 0.612568,-0.253735 1.250374,-0.380602 1.91341,-0.380604 z"
             style="fill:none;stroke:#9370db;stroke-width:1;stroke-linecap:butt;stroke-linejoin:miter;stroke-miterlimit:10;stroke-dasharray:none;stroke-opacity:1"
             id="path682"
             inkscape:connector-curvature="0" /></g><g
           id="g684"
           transform="matrix(1.2513531,0,0,1.2504644,292.86597,1662.6559)"><text
   transform="translate(0,15)"
   style="font-variant:normal;font-weight:normal;font-size:14px;font-family:'Trebuchet MS';-inkscape-font-specification:TrebuchetMS;writing-mode:lr-tb;fill:#333333;fill-opacity:1;fill-rule:nonzero;stroke:none"
   id="text688"><tspan
     x="0 6.9316406 11.060547 18.573242 24.240234 31.875977 39.525391 47.325195 54.666992 60.217773 67.730469 75.072266 82.427734 90.077148 97.104492 104.74023"
     y="0"
     sodipodi:role="line"
     id="tspan686">closeup_to_anges</tspan></text>


</g><g
           id="g690"
           transform="matrix(1.2513531,0,0,1.2504644,274.03551,1776.4482)"><text
   transform="translate(0,15)"
   style="font-variant:normal;font-weight:normal;font-size:14px;font-family:FontAwesome;-inkscape-font-specification:FontAwesome5FreeRegular;writing-mode:lr-tb;fill:#333333;fill-opacity:1;fill-rule:nonzero;stroke:none"
   id="text694"><tspan
     x="0"
     y="0"
     id="tspan692"></tspan></text>


<text
   transform="translate(16.467773,15)"
   style="font-variant:normal;font-weight:normal;font-size:14px;font-family:'Trebuchet MS';-inkscape-font-specification:TrebuchetMS;writing-mode:lr-tb;fill:#333333;fill-opacity:1;fill-rule:nonzero;stroke:none"
   id="text698"><tspan
     x="0 3.9921875 11.641602 19.441406 27.09082 32.641602 36.859375 42.03418 46.026367 50.155273 57.791016 63.458008 67.675781 72.850586 80.363281 85.804688 90.022461 98.280273 107.21484 116.68262 124.18164"
     y="0"
     sodipodi:role="line"
     id="tspan696">input files for ANGES</tspan></text>


<text
   transform="translate(18.03125,36)"
   style="font-variant:normal;font-weight:normal;font-size:14px;font-family:'Trebuchet MS';-inkscape-font-specification:TrebuchetMS;writing-mode:lr-tb;fill:#333333;fill-opacity:1;fill-rule:nonzero;stroke:none"
   id="text702"><tspan
     x="0 5.140625 12.94043 20.453125 26.120117 31.787109 35.779297 43.579102 47.708008 54.612305 58.830078 64.004883 67.99707 72.125977 77.676758 85.3125 90.753906 98.389648 106.18945"
     y="0"
     sodipodi:role="line"
     id="tspan700">(possibly filtered)</tspan></text>


</g><g
           id="g704"
           transform="matrix(1.2513531,0,0,1.2504644,445.08136,1929.6301)"><path
             d="M -69.601563,-20.5 H 69.601563 c 0.663032,2e-6 1.300834,0.126869 1.913406,0.380604 0.612572,0.253736 1.153282,0.615022 1.622124,1.083862 0.468834,0.468842 0.830116,1.009546 1.083854,1.622116 0.253739,0.612572 0.380608,1.250378 0.380616,1.913418 v 31 c -8e-6,0.66304 -0.126877,1.300846 -0.380616,1.913418 -0.253738,0.61257 -0.61502,1.153274 -1.083854,1.622116 -0.468842,0.46884 -1.009552,0.830126 -1.622124,1.083862 C 70.902397,20.373131 70.264595,20.499998 69.601563,20.5 H -69.601563 c -0.663032,-2e-6 -1.300834,-0.126869 -1.913406,-0.380604 -0.612572,-0.253736 -1.153282,-0.615022 -1.622124,-1.083862 -0.468834,-0.468842 -0.830116,-1.009546 -1.083854,-1.622116 C -74.474686,16.800846 -74.601555,16.16304 -74.601563,15.5 v -31 c 8e-6,-0.66304 0.126877,-1.300846 0.380616,-1.913418 0.253738,-0.61257 0.61502,-1.153274 1.083854,-1.622116 0.468842,-0.46884 1.009552,-0.830126 1.622124,-1.083862 0.612572,-0.253735 1.250374,-0.380602 1.913406,-0.380604 z"
             style="fill:#ececff;fill-opacity:1;fill-rule:nonzero;stroke:none"
             id="path706"
             inkscape:connector-curvature="0" /><path
             d="M -69.601563,-20.5 H 69.601563 c 0.663032,2e-6 1.300834,0.126869 1.913406,0.380604 0.612572,0.253736 1.153282,0.615022 1.622124,1.083862 0.468834,0.468842 0.830116,1.009546 1.083854,1.622116 0.253739,0.612572 0.380608,1.250378 0.380616,1.913418 v 31 c -8e-6,0.66304 -0.126877,1.300846 -0.380616,1.913418 -0.253738,0.61257 -0.61502,1.153274 -1.083854,1.622116 -0.468842,0.46884 -1.009552,0.830126 -1.622124,1.083862 C 70.902397,20.373131 70.264595,20.499998 69.601563,20.5 H -69.601563 c -0.663032,-2e-6 -1.300834,-0.126869 -1.913406,-0.380604 -0.612572,-0.253736 -1.153282,-0.615022 -1.622124,-1.083862 -0.468834,-0.468842 -0.830116,-1.009546 -1.083854,-1.622116 C -74.474686,16.800846 -74.601555,16.16304 -74.601563,15.5 v -31 c 8e-6,-0.66304 0.126877,-1.300846 0.380616,-1.913418 0.253738,-0.61257 0.61502,-1.153274 1.083854,-1.622116 0.468842,-0.46884 1.009552,-0.830126 1.622124,-1.083862 0.612572,-0.253735 1.250374,-0.380602 1.913406,-0.380604 z"
             style="fill:none;stroke:#9370db;stroke-width:1;stroke-linecap:butt;stroke-linejoin:miter;stroke-miterlimit:10;stroke-dasharray:none;stroke-opacity:1"
             id="path708"
             inkscape:connector-curvature="0" /></g><g
           id="g710"
           transform="matrix(1.2513531,0,0,1.2504644,364.24197,1916.5002)"><text
   transform="translate(0,15)"
   style="font-variant:normal;font-weight:normal;font-size:14px;font-family:'Trebuchet MS';-inkscape-font-specification:TrebuchetMS;writing-mode:lr-tb;fill:#333333;fill-opacity:1;fill-rule:nonzero;stroke:none"
   id="text714"><tspan
     x="0 6.9316406 12.373047 20.008789 27.364258 32.915039 40.550781 47.892578 55.248047 62.897461 69.924805 77.560547 83.227539 90.569336 97.500977 105.01367 112.66309 117.83789"
     y="0"
     sodipodi:role="line"
     id="tspan712">create_anges_confC</tspan></text>


</g><g
           id="g716"
           transform="matrix(1.2513531,0,0,1.2504644,339.18555,2030.2925)"><text
   transform="translate(0,15)"
   style="font-variant:normal;font-weight:normal;font-size:14px;font-family:FontAwesome;-inkscape-font-specification:FontAwesome5FreeSolid;writing-mode:lr-tb;fill:#333333;fill-opacity:1;fill-rule:nonzero;stroke:none"
   id="text720"><tspan
     x="0"
     y="0"
     id="tspan718"></tspan></text>


<text
   transform="translate(14.717773,15)"
   style="font-variant:normal;font-weight:normal;font-size:14px;font-family:'Trebuchet MS';-inkscape-font-specification:TrebuchetMS;writing-mode:lr-tb;fill:#333333;fill-opacity:1;fill-rule:nonzero;stroke:none"
   id="text724"><tspan
     x="0 8.2578125 17.192383 26.660156 34.15918 40.892578 45.110352 52.041992 59.554688 67.204102 72.378906 76.371094 83.398438 91.047852 96.489258 103.84473 109.39551 113.3877 120.90039 128.5498 132.76758 137.94238 141.93457 146.06348"
     y="0"
     sodipodi:role="line"
     id="tspan722">ANGES configuration file</tspan></text>


</g><g
           id="g726"
           transform="matrix(1.2513531,0,0,1.2504644,363.97803,2157.2146)"><path
             d="m -29.132813,-20.5 h 58.265626 c 0.663038,2e-6 1.300842,0.126869 1.913412,0.380604 0.612571,0.253736 1.15328,0.615022 1.622121,1.083862 0.468842,0.468842 0.830128,1.009546 1.083863,1.622116 0.253734,0.612572 0.3806,1.250378 0.380604,1.913418 v 31 c -4e-6,0.66304 -0.12687,1.300846 -0.380604,1.913418 -0.253735,0.61257 -0.615021,1.153274 -1.083863,1.622116 -0.468841,0.46884 -1.00955,0.830126 -1.622121,1.083862 -0.61257,0.253735 -1.250374,0.380602 -1.913412,0.380604 h -58.265626 c -0.663038,-2e-6 -1.300842,-0.126869 -1.913412,-0.380604 -0.612571,-0.253736 -1.15328,-0.615022 -1.622121,-1.083862 -0.468842,-0.468842 -0.830128,-1.009546 -1.083863,-1.622116 -0.253734,-0.612572 -0.3806,-1.250378 -0.380604,-1.913418 v -31 c 4e-6,-0.66304 0.12687,-1.300846 0.380604,-1.913418 0.253735,-0.61257 0.615021,-1.153274 1.083863,-1.622116 0.468841,-0.46884 1.00955,-0.830126 1.622121,-1.083862 0.61257,-0.253735 1.250374,-0.380602 1.913412,-0.380604 z"
             style="fill:#ececff;fill-opacity:1;fill-rule:nonzero;stroke:none"
             id="path728"
             inkscape:connector-curvature="0" /><path
             d="m -29.132813,-20.5 h 58.265626 c 0.663038,2e-6 1.300842,0.126869 1.913412,0.380604 0.612571,0.253736 1.15328,0.615022 1.622121,1.083862 0.468842,0.468842 0.830128,1.009546 1.083863,1.622116 0.253734,0.612572 0.3806,1.250378 0.380604,1.913418 v 31 c -4e-6,0.66304 -0.12687,1.300846 -0.380604,1.913418 -0.253735,0.61257 -0.615021,1.153274 -1.083863,1.622116 -0.468841,0.46884 -1.00955,0.830126 -1.622121,1.083862 -0.61257,0.253735 -1.250374,0.380602 -1.913412,0.380604 h -58.265626 c -0.663038,-2e-6 -1.300842,-0.126869 -1.913412,-0.380604 -0.612571,-0.253736 -1.15328,-0.615022 -1.622121,-1.083862 -0.468842,-0.468842 -0.830128,-1.009546 -1.083863,-1.622116 -0.253734,-0.612572 -0.3806,-1.250378 -0.380604,-1.913418 v -31 c 4e-6,-0.66304 0.12687,-1.300846 0.380604,-1.913418 0.253735,-0.61257 0.615021,-1.153274 1.083863,-1.622116 0.468841,-0.46884 1.00955,-0.830126 1.622121,-1.083862 0.61257,-0.253735 1.250374,-0.380602 1.913412,-0.380604 z"
             style="fill:none;stroke:#9370db;stroke-width:1;stroke-linecap:butt;stroke-linejoin:miter;stroke-miterlimit:10;stroke-dasharray:none;stroke-opacity:1"
             id="path730"
             inkscape:connector-curvature="0" /></g><g
           id="g732"
           transform="matrix(1.2513531,0,0,1.2504644,333.77936,2144.0847)"><text
   transform="translate(0,15)"
   style="font-variant:normal;font-weight:normal;font-size:14px;font-family:'Trebuchet MS';-inkscape-font-specification:TrebuchetMS;writing-mode:lr-tb;fill:#333333;fill-opacity:1;fill-rule:nonzero;stroke:none"
   id="text736"><tspan
     x="0 7.3554688 15.004883 22.032227 29.667969 35.334961"
     y="0"
     sodipodi:role="line"
     id="tspan734">angesC</tspan></text>


</g><g
           id="g738"
           transform="matrix(1.2513531,0,0,1.2504644,252.75421,2257.877)"><text
   transform="translate(0,15)"
   style="font-variant:normal;font-weight:normal;font-size:14px;font-family:FontAwesome;-inkscape-font-specification:FontAwesome5FreeSolid;writing-mode:lr-tb;fill:#333333;fill-opacity:1;fill-rule:nonzero;stroke:none"
   id="text742"><tspan
     x="0"
     y="0"
     id="tspan740"></tspan></text>


<text
   transform="translate(14.717773,15)"
   style="font-variant:normal;font-weight:normal;font-size:14px;font-family:'Trebuchet MS';-inkscape-font-specification:TrebuchetMS;writing-mode:lr-tb;fill:#333333;fill-opacity:1;fill-rule:nonzero;stroke:none"
   id="text746"><tspan
     x="0 7.3554688 15.004883 21.936523 29.572266 35.239258 40.790039 48.302734 53.744141 57.961914 66.335938 74.59375 82.742188 88.40918 92.626953 97.767578 105.57422 115.03516 120.17578 125.72656 131.16797 138.80371 146.43945 152.10645"
     y="0"
     sodipodi:role="line"
     id="tspan744">ancestor CARs (PQ-trees)</tspan></text>


</g></g></g></g></svg>